{
  "prepare_queue": {
    "installed": [],
    "uninstalled": []
  },
  "config_munge": {
    "files": {}
  },
  "installed_plugins": {
    "cordova-plugin-device": {
      "PACKAGE_NAME": "com.example.idealSoftware"
    },
    "cordova-plugin-fcm": {
      "PACKAGE_NAME": "com.example.idealSoftware"
    },
    "cordova-plugin-network-information": {
      "PACKAGE_NAME": "com.example.idealSoftware"
    },
    "cordova-plugin-tts": {
      "PACKAGE_NAME": "com.example.idealSoftware"
    },
    "cordova-plugin-whitelist": {
      "PACKAGE_NAME": "com.example.idealSoftware"
    },
    "cordova-sqlite-storage": {
      "PACKAGE_NAME": "com.example.idealSoftware"
    }
  },
  "dependent_plugins": {}
}